1414
217
1436
951
547
1524
375
982
500
2204
772
1266
1850
805
315
2350
1040
475
570
1685
1320
145
625
1460
840
1705
240
1325
135
2450
1005
1025
485
2150
620
670
1500
1150
1900
1095
285
1045
1510
500
1180
865
30
1315
1215
410
1735
745
1550
825
1030
1615
550
1770
1195
360
585
2565
615
1835
805
2115
220
2520
1530
575
1615
1370
180
1200
225
1230
1375
950
1705
1060
425
2650
665
2435
1325
1110
1710
1075
1110
430
1085
515
1495
900
935
1975
405
1645
230
1740
1930
950
910
1735
130
1220
1350
705
890
1025
300
1270
225
2215
90
2105
1385
890
345
755
415
600
360
1675
1700
645
550
1075
365
505
1595
145
1865
325
1600
1295
460
2340
1490
1290
