540
360
116
693
396
257
709
1087
64
1309
295
434
800
550
120
805
530
315
185
820
150
1025
100
675
775
1220
345
425
370
510
0
645
430
1235
310
380
270
660
560
515
200
300
820
1355
345
280
225
1030
830
1080
615
125
830
980
415
755
340
715
585
530
155
535
80
1335
140
205
535
1120
695
540
140
1515
800
245
230
40
440
665
605
280
285
70
235
410
565
1105
135
490
970
1235
765
1285
865
1250
790
895
125
595
645
195
515
170
685
1020
730
540
180
1500
75
810
620
255
330
430
360
1325
40
260
265
505
25
1490
850
1280
840
980
830
855
145
1505
80
315
555
420
845
295
255
1225
340
690
