219
358
1127
1222
1441
32
523
1445
277
393
1202
1515
135
420
355
420
890
1130
155
490
935
1500
1595
90
305
1210
1400
1360
670
1430
775
1295
1295
180
295
725
1370
1545
510
1230
625
1700
1195
1350
1025
1550
1205
1220
25
505
1140
1240
1655
170
510
1645
735
1670
600
1370
315
195
1415
210
535
1450
525
1385
540
270
755
1315
370
1690
1200
905
205
445
1180
1470
1275
1715
1350
1130
1445
1150
20
445
375
650
1450
1425
1130
1030
1315
1560
515
1720
1335
1010
1660
230
785
1590
555
1370
985
1705
1015
1095
570
540
485
1360
420
1235
630
1650
1155
200
1320
1125
955
950
150
275
415
1415
1195
960
810
1135
385
475
1305
1665
240
140
1000
1005
