609
114
679
1520
1570
5
1470
240
449
915
1240
1143
650
250
425
940
1065
920
600
1225
1620
0
775
1590
1145
1095
585
1395
600
780
1570
380
715
185
1385
980
1385
35
1425
175
1495
1030
400
1340
780
1250
1300
1315
370
1055
1380
1035
290
695
590
805
1575
20
1625
500
1515
110
1180
205
470
1145
960
1515
1200
840
125
870
435
1560
1125
1350
450
1020
1545
1045
460
1705
560
650
1030
1055
215
700
655
830
730
825
1525
355
520
865
1320
1185
555
1400
460
725
1180
1025
645
160
1840
65
1120
1000
1270
235
740
1055
1460
160
545
1820
1265
1305
380
775
1590
220
1570
45
1205
335
1230
315
685
1545
1125
1250
810
1525
700
1500
1060
1250
