1343
158
1094
1158
1182
1263
166
812
1294
1556
545
1513
1190
50
1005
1700
205
835
420
1270
330
1495
1230
1290
1135
180
1120
1395
1375
1040
945
1375
385
570
1135
935
275
635
1040
50
460
845
1460
270
1175
360
690
1670
1015
155
1450
1715
1355
1695
1465
1705
455
1745
295
850
460
1310
0
970
1140
1845
735
1500
1055
1220
380
715
655
1620
1535
1600
710
1380
305
655
395
1300
1505
150
1385
1710
150
1000
910
1275
570
1540
505
1640
1670
220
1325
930
1240
1645
175
570
1035
250
440
965
1340
365
160
820
200
780
930
1435
585
1185
120
750
295
925
555
1420
1445
70
1385
1040
1390
445
1495
1575
1520
375
1050
200
225
790
345
635
1250
50
