1452
495
158
1275
1380
1427
1058
1573
908
337
499
1435
605
1135
1535
180
945
1380
1150
440
765
1360
1230
1570
1060
495
1345
720
1195
1425
835
1605
1375
1425
1455
670
1575
1540
1610
1555
550
1510
1005
250
1005
540
1690
520
885
1610
1530
1570
500
1420
1665
605
10
1365
1690
685
865
55
1700
655
1055
210
1245
1255
1385
795
1095
1855
1250
1750
1445
1520
1125
1530
270
1005
670
1650
1640
550
260
1195
1120
1830
625
360
685
1565
1260
1290
1140
1775
1720
525
265
1385
755
1380
1340
1105
840
205
1570
1435
1155
480
1600
695
1405
260
660
240
965
625
1405
350
1655
530
200
1370
1740
400
1415
665
185
1135
1340
710
1470
1465
190
995
1640
350
1025
1355
