1419
1453
251
556
929
559
915
114
1120
1056
554
1331
215
620
995
425
1035
1235
1215
90
770
325
1310
1235
1015
1315
500
340
40
585
1580
1195
480
1505
1270
995
1085
310
1360
1595
755
1530
1405
1285
860
1235
240
1225
1200
80
755
10
1200
770
560
1190
420
1285
1120
105
140
860
360
830
1320
1520
510
1500
880
370
1510
1490
1235
925
860
125
1095
420
995
230
840
420
880
1040
765
430
1415
1030
520
1470
350
1400
355
480
125
480
750
1570
1570
1490
1365
1405
1385
1250
40
440
710
1255
1145
1475
550
575
290
1405
325
785
165
480
455
1545
1090
130
900
1040
835
1025
215
690
310
1145
460
1315
920
1020
435
350
610
1265
780
640
