950
901
37
1044
31
242
887
938
1183
321
887
1197
1465
290
640
1165
80
180
1015
705
1275
400
585
850
1005
1155
1245
120
110
1240
685
1095
1220
1010
115
140
300
1120
645
1250
945
1320
1020
760
1015
85
1350
45
1080
1150
310
205
1340
465
1040
1010
10
515
955
1140
1205
105
565
975
860
1075
1170
1185
900
270
935
930
1245
65
1215
350
985
390
945
185
50
285
1005
600
965
360
1125
475
1185
490
1200
695
1300
80
1035
545
955
980
85
745
670
1205
1175
450
1240
850
1065
205
190
915
865
1435
1315
525
590
1290
1055
620
245
315
750
695
1300
310
1030
1205
655
1050
920
390
975
415
10
1105
1315
415
565
985
130
990
