1514
791
551
497
1289
1228
716
1340
326
1565
478
1542
1105
1455
300
1695
1225
1180
1360
1175
285
1500
455
1165
515
1535
1065
1065
1455
1390
335
1775
705
400
1765
835
395
1315
590
1675
675
540
675
205
590
485
380
705
1455
940
1730
680
665
505
1575
1030
910
1390
310
320
1365
1455
860
1340
700
275
1100
1355
1315
675
1220
1350
655
1385
475
235
695
1560
950
1320
875
1080
1340
1065
1390
1145
1250
955
650
210
1330
1360
910
1445
1040
1160
750
465
1150
1110
255
455
1075
1355
1105
1350
480
330
1510
485
1445
1125
615
550
1545
1355
535
460
945
1130
720
1585
1010
1415
1010
1125
1110
990
890
1570
1570
1055
1460
670
1385
605
660
420
340
1370
