914
1289
1321
1087
87
1335
132
713
75
38
204
863
1040
1260
25
75
1460
1155
420
820
1505
955
930
1620
300
35
160
290
1265
1075
245
85
1305
1010
395
1085
1275
1080
1500
970
1495
1175
90
1315
1575
1195
195
1035
240
185
195
590
180
820
415
560
165
1115
340
1010
500
850
110
350
325
1115
990
1060
320
1085
370
1175
5
1300
85
1425
345
1010
1255
1335
775
1460
265
1275
270
1490
350
925
1325
1090
1195
1300
775
1545
490
870
100
810
1285
1090
1255
1150
95
50
1235
1065
650
1205
940
1015
80
1150
905
1210
950
1330
10
880
1275
1180
1160
985
1070
1150
1125
1115
165
565
255
275
120
1565
345
1140
95
1495
950
1345
260
525
