1571
1236
1168
512
558
1551
777
992
891
1519
1009
459
700
1035
605
1435
795
290
575
1850
860
1475
1310
675
1755
1260
960
1685
1710
1080
520
985
1370
745
755
445
660
1330
890
1805
1815
1145
1485
1425
510
995
810
1325
850
255
690
975
640
1210
435
1740
865
1460
765
1230
1490
1195
530
1400
1380
300
945
1820
1610
1140
690
1355
1000
290
910
915
1150
675
410
1665
500
1150
1585
960
1040
1140
1340
425
1635
1290
695
1255
1760
1450
760
1310
365
1530
1690
1515
360
1390
745
660
1020
465
790
955
800
935
595
1735
435
1515
735
1370
900
1595
925
1260
990
200
585
1770
380
1595
1220
630
1230
830
680
1625
1375
1345
1870
1180
755
1100
660
825
