1420
1196
1444
1021
138
174
1435
1519
103
584
217
566
275
645
1340
765
430
730
350
710
1515
730
1125
1215
215
585
220
235
245
550
70
875
330
135
1525
1480
355
155
85
490
240
465
1255
1525
1145
1335
220
255
1565
1045
1240
865
1610
1320
185
905
1500
1550
120
305
1420
1325
115
260
1460
1650
1345
820
225
415
305
370
145
120
1355
1460
1630
1570
1530
1635
205
590
1405
1490
1415
1585
1760
1125
235
445
1590
1185
1285
930
1510
870
1310
1150
1410
1105
290
155
220
75
385
800
1190
930
1450
1850
1580
1090
130
800
150
340
20
5
1205
820
270
160
1230
1455
230
810
1285
1695
250
470
165
465
1200
1240
370
260
1360
1525
1130
1295
